{
	"Trimming":"Trimming",
	"Options":"Options",
	"Tool":"Tool",
	"Selection":"Selection",
	"Save and close editor":"Save and close editor",
	"Save changes":"Save changes",
	"Discard changes and close":"Discard changes and close",
	"Paella Editor":"Paella Editor"
}